…
    Decide if the following two names refer to the same {record_type}.

    Name A: {A}
    Name B: {B}
    Same {record_type} (Yes or No):

``` r
train <- get_training_set(list(sim), record_type = 'person')
train
#> # A tibble: 40 × 5
#>    A              B                            sim    jw match
#>    <fct>          <fct>                      <dbl> <dbl> <chr>
#>  1 Bill Clinton   Barack Hussein Obama       0.517 0.56  No   
#>  2 George W. Bush Joe Riley                  0.361 0.410 No   
#>  3 Donald Trump   Joe Riley                  0.233 0.417 No   
#>  4 Joe Biden      Barack Hussein Obama       0.531 0.535 No   
#>  5 Bill Clinton   Joe Riley                  0.320 0.361 No   
#>  6 Joe Biden      George Herbert Walker Bush 0.470 0.366 No   
#>  7 Joe Biden      Joe Riley                  0.391 0.867 No   
#>  8 Bill Clinton   George Walker Bush         0.623 0.361 No   
#>  9 Barack Obama   William Jefferson Clinton  0.513 0.414 No   
#> 10 Joe Biden      George Walker Bush         0.509 0.389 No   
#> # ℹ 30 more rows
```
…
